{
  "openapi": "3.1.0",
  "info": {
    "title": "Main API",
    "version": "2",
    "summary": "Twitter Main API",
    "description": "Reverse engineered Twitter API (Main)",
    "contact": {
      "name": "funnytwttr"
    }
  },
  "servers": [
    {
      "description": "Localhost",
      "url": "http://localhost:3000/i/api"
    },
    {
      "description": "Real",
      "url": "https://twitter.com/i/api"
    }
  ],
  "paths": {
    "/1.1/account/settings.json": {
      "get": {
        "summary": "/account/settings.json",
        "responses": {
          "200": {
            "description": "OK",
            "content": {
              "application/json": {
                "schema": {
                  "description": "",
                  "type": "object",
                  "properties": {
                    "time_zone": {
                      "type": "object",
                      "properties": {
                        "name": {
                          "type": "string",
                          "minLength": 1
                        },
                        "utc_offset": {
                          "type": "number"
                        },
                        "tzinfo_name": {
                          "type": "string",
                          "minLength": 1
                        }
                      },
                      "required": [
                        "name",
                        "utc_offset",
                        "tzinfo_name"
                      ]
                    },
                    "protected": {
                      "type": "boolean"
                    },
                    "screen_name": {
                      "type": "string",
                      "minLength": 1
                    },
                    "always_use_https": {
                      "type": "boolean"
                    },
                    "use_cookie_personalization": {
                      "type": "boolean"
                    },
                    "sleep_time": {
                      "type": "object",
                      "properties": {
                        "enabled": {
                          "type": "boolean"
                        },
                        "end_time": {},
                        "start_time": {}
                      },
                      "required": [
                        "enabled"
                      ]
                    },
                    "geo_enabled": {
                      "type": "boolean"
                    },
                    "language": {
                      "type": "string",
                      "minLength": 1
                    },
                    "discoverable_by_email": {
                      "type": "boolean"
                    },
                    "discoverable_by_mobile_phone": {
                      "type": "boolean"
                    },
                    "display_sensitive_media": {
                      "type": "boolean"
                    },
                    "personalized_trends": {
                      "type": "boolean"
                    },
                    "allow_media_tagging": {
                      "type": "string",
                      "minLength": 1
                    },
                    "allow_contributor_request": {
                      "type": "string",
                      "minLength": 1
                    },
                    "allow_ads_personalization": {
                      "type": "boolean"
                    },
                    "allow_logged_out_device_personalization": {
                      "type": "boolean"
                    },
                    "allow_location_history_personalization": {
                      "type": "boolean"
                    },
                    "allow_sharing_data_for_third_party_personalization": {
                      "type": "boolean"
                    },
                    "allow_dms_from": {
                      "type": "string",
                      "minLength": 1
                    },
                    "allow_dm_groups_from": {
                      "type": "string",
                      "minLength": 1
                    },
                    "translator_type": {
                      "type": "string",
                      "minLength": 1
                    },
                    "trend_location": {
                      "type": "array",
                      "uniqueItems": true,
                      "minItems": 1,
                      "items": {
                        "required": [
                          "name",
                          "countryCode",
                          "url",
                          "woeid",
                          "parentid",
                          "country"
                        ],
                        "properties": {
                          "name": {
                            "type": "string",
                            "minLength": 1
                          },
                          "countryCode": {
                            "type": "string",
                            "minLength": 1
                          },
                          "url": {
                            "type": "string",
                            "minLength": 1
                          },
                          "woeid": {
                            "type": "number"
                          },
                          "placeType": {
                            "type": "object",
                            "properties": {
                              "name": {
                                "type": "string",
                                "minLength": 1
                              },
                              "code": {
                                "type": "number"
                              }
                            },
                            "required": [
                              "name",
                              "code"
                            ]
                          },
                          "parentid": {
                            "type": "number"
                          },
                          "country": {
                            "type": "string",
                            "minLength": 1
                          }
                        }
                      }
                    },
                    "country_code": {
                      "type": "string",
                      "minLength": 1
                    },
                    "nsfw_user": {
                      "type": "boolean"
                    },
                    "nsfw_admin": {
                      "type": "boolean"
                    },
                    "ranked_timeline_setting": {
                      "type": "number"
                    },
                    "ranked_timeline_eligible": {
                      "type": "boolean"
                    },
                    "address_book_live_sync_enabled": {
                      "type": "boolean"
                    },
                    "universal_quality_filtering_enabled": {
                      "type": "string",
                      "minLength": 1
                    },
                    "dm_receipt_setting": {
                      "type": "string",
                      "minLength": 1
                    },
                    "alt_text_compose_enabled": {
                      "type": "boolean"
                    },
                    "mention_filter": {
                      "type": "string",
                      "minLength": 1
                    },
                    "allow_authenticated_periscope_requests": {
                      "type": "boolean"
                    },
                    "protect_password_reset": {
                      "type": "boolean"
                    },
                    "require_password_login": {
                      "type": "boolean"
                    },
                    "requires_login_verification": {
                      "type": "boolean"
                    },
                    "ext_dm_nsfw_media_filter": {
                      "type": "boolean"
                    },
                    "ext": {
                      "type": "object",
                      "properties": {
                        "ssoConnections": {
                          "type": "object",
                          "properties": {
                            "r": {
                              "type": "object",
                              "properties": {
                                "ok": {
                                  "type": "array",
                                  "items": {
                                    "required": [],
                                    "properties": {}
                                  }
                                }
                              },
                              "required": [
                                "ok"
                              ]
                            },
                            "ttl": {
                              "type": "number"
                            }
                          },
                          "required": [
                            "r",
                            "ttl"
                          ]
                        }
                      },
                      "required": [
                        "ssoConnections"
                      ]
                    },
                    "dm_quality_filter": {
                      "type": "string",
                      "minLength": 1
                    },
                    "autoplay_disabled": {
                      "type": "boolean"
                    },
                    "settings_metadata": {
                      "type": "object",
                      "properties": {},
                      "required": []
                    }
                  },
                  "required": [
                    "time_zone",
                    "protected",
                    "screen_name",
                    "always_use_https",
                    "use_cookie_personalization",
                    "sleep_time",
                    "geo_enabled",
                    "language",
                    "discoverable_by_email",
                    "discoverable_by_mobile_phone",
                    "display_sensitive_media",
                    "personalized_trends",
                    "allow_media_tagging",
                    "allow_contributor_request",
                    "allow_ads_personalization",
                    "allow_logged_out_device_personalization",
                    "allow_location_history_personalization",
                    "allow_sharing_data_for_third_party_personalization",
                    "allow_dms_from",
                    "allow_dm_groups_from",
                    "translator_type",
                    "trend_location",
                    "country_code",
                    "nsfw_user",
                    "nsfw_admin",
                    "ranked_timeline_setting",
                    "ranked_timeline_eligible",
                    "address_book_live_sync_enabled",
                    "universal_quality_filtering_enabled",
                    "dm_receipt_setting",
                    "alt_text_compose_enabled",
                    "mention_filter",
                    "allow_authenticated_periscope_requests",
                    "protect_password_reset",
                    "require_password_login",
                    "requires_login_verification",
                    "ext_dm_nsfw_media_filter",
                    "ext",
                    "dm_quality_filter",
                    "autoplay_disabled",
                    "settings_metadata"
                  ],
                  "x-examples": {
                    "example-1": {
                      "time_zone": {
                        "name": "Eastern Time (US & Canada)",
                        "utc_offset": -14400,
                        "tzinfo_name": "America/New_York"
                      },
                      "protected": false,
                      "screen_name": "",
                      "always_use_https": true,
                      "use_cookie_personalization": true,
                      "sleep_time": {
                        "enabled": false,
                        "end_time": null,
                        "start_time": null
                      },
                      "geo_enabled": true,
                      "language": "en",
                      "discoverable_by_email": false,
                      "discoverable_by_mobile_phone": false,
                      "display_sensitive_media": true,
                      "personalized_trends": true,
                      "allow_media_tagging": "all",
                      "allow_contributor_request": "all",
                      "allow_ads_personalization": false,
                      "allow_logged_out_device_personalization": true,
                      "allow_location_history_personalization": true,
                      "allow_sharing_data_for_third_party_personalization": true,
                      "allow_dms_from": "following",
                      "allow_dm_groups_from": "following",
                      "translator_type": "none",
                      "trend_location": [
                        {
                          "name": "Canada",
                          "countryCode": "CA",
                          "url": "http://where.yahooapis.com/v1/place/0",
                          "woeid": 0,
                          "placeType": {
                            "name": "Country",
                            "code": 12
                          },
                          "parentid": 1,
                          "country": "Canada"
                        }
                      ],
                      "country_code": "ca",
                      "nsfw_user": false,
                      "nsfw_admin": false,
                      "ranked_timeline_setting": 3,
                      "ranked_timeline_eligible": true,
                      "address_book_live_sync_enabled": true,
                      "universal_quality_filtering_enabled": "enabled",
                      "dm_receipt_setting": "all_disabled",
                      "alt_text_compose_enabled": true,
                      "mention_filter": "unfiltered",
                      "allow_authenticated_periscope_requests": true,
                      "protect_password_reset": true,
                      "require_password_login": false,
                      "requires_login_verification": false,
                      "ext_dm_nsfw_media_filter": false,
                      "ext": {
                        "ssoConnections": {
                          "r": {
                            "ok": []
                          },
                          "ttl": -1
                        }
                      },
                      "dm_quality_filter": "enabled",
                      "autoplay_disabled": false,
                      "settings_metadata": {}
                    }
                  }
                },
                "examples": {}
              }
            },
            "headers": {
              "x-twitter-response-tags": {
                "schema": {
                  "type": "string"
                },
                "description": "Unsure"
              }
            }
          }
        },
        "operationId": "get-settings.json",
        "parameters": [
          {
            "schema": {
              "type": "boolean"
            },
            "in": "query",
            "name": "include_mention_filter",
            "description": "Possible Feature Flag"
          },
          {
            "schema": {
              "type": "boolean"
            },
            "in": "query",
            "name": "include_nsfw_user_flag",
            "description": "Possible Feature Flag"
          },
          {
            "schema": {
              "type": "boolean"
            },
            "in": "query",
            "name": "include_nsfw_admin_flag",
            "description": "Possible Feature Flag"
          },
          {
            "schema": {
              "type": "boolean"
            },
            "in": "query",
            "name": "include_ranked_timeline",
            "description": "Possible Feature Flag"
          },
          {
            "schema": {
              "type": "boolean"
            },
            "in": "query",
            "name": "include_alt_text_compose",
            "description": "Possible Feature Flag"
          },
          {
            "schema": {
              "type": "string",
              "default": "ssoConnections"
            },
            "in": "query",
            "name": "ext",
            "description": "Unsure"
          },
          {
            "schema": {
              "type": "string"
            },
            "in": "query",
            "name": "include_country_code",
            "description": "Possible Feature Flag"
          },
          {
            "schema": {
              "type": "string"
            },
            "in": "query",
            "name": "include_ext_dm_nsfw_media_filter",
            "description": "Possible Feature Flag"
          },
          {
            "schema": {
              "type": "string"
            },
            "in": "header",
            "name": "x-twitter-client-language",
            "description": "Client's set language"
          },
          {
            "schema": {
              "type": "string"
            },
            "in": "header",
            "name": "x-twitter-auth-type",
            "description": "Unsure"
          },
          {
            "schema": {
              "type": "boolean"
            },
            "in": "header",
            "name": "x-twitter-active-user",
            "description": "Unsure"
          }
        ],
        "description": "Gets a user's settings",
        "tags": [
          "v1.1"
        ]
      },
      "parameters": []
    },
    "/2/timeline/home.json": {
      "get": {
        "summary": "/timeline/home.json",
        "tags": [],
        "responses": {
          "200": {
            "description": "OK",
            "content": {
              "application/json": {
                "schema": {
                  "type": "object",
                  "properties": {
                    "globalObjects": {
                      "type": "object",
                      "required": [
                        "broadcasts",
                        "cards",
                        "lists",
                        "media",
                        "moments",
                        "places",
                        "topics",
                        "tweets",
                        "users"
                      ],
                      "properties": {
                        "broadcasts": {
                          "type": "object"
                        },
                        "cards": {
                          "type": "object"
                        },
                        "lists": {
                          "type": "object"
                        },
                        "media": {
                          "type": "object"
                        },
                        "moments": {
                          "type": "object"
                        },
                        "places": {
                          "type": "object"
                        },
                        "topics": {
                          "type": "object"
                        },
                        "tweets": {
                          "type": "object",
                          "properties": {
                            "{conversation_id_str}": {
                              "type": "object",
                              "properties": {
                                "conversation_id_str": {
                                  "type": "string"
                                },
                                "created_at": {
                                  "type": "string"
                                },
                                "display_text_range": {
                                  "type": "array",
                                  "items": {
                                    "type": "integer"
                                  }
                                },
                                "entities": {
                                  "type": "object",
                                  "properties": {
                                    "user_mentions": {
                                      "type": "array",
                                      "items": {
                                        "type": "object",
                                        "properties": {
                                          "id_str": {
                                            "type": "string"
                                          },
                                          "indices": {
                                            "type": "array",
                                            "items": {
                                              "type": "integer"
                                            }
                                          },
                                          "name": {
                                            "type": "string"
                                          },
                                          "screen_name": {
                                            "type": "string"
                                          }
                                        }
                                      }
                                    },
                                    "hashtags": {
                                      "type": "array",
                                      "items": {
                                        "type": "object",
                                        "properties": {
                                          "indices": {
                                            "type": "array",
                                            "items": {
                                              "type": "integer"
                                            }
                                          },
                                          "text": {
                                            "type": "string"
                                          }
                                        }
                                      }
                                    },
                                    "media": {
                                      "type": "array",
                                      "items": {
                                        "type": "object",
                                        "properties": {
                                          "display_url": {
                                            "type": "string"
                                          },
                                          "expanded_url": {
                                            "type": "string"
                                          },
                                          "large": {
                                            "type": "object",
                                            "properties": {
                                              "faces": {
                                                "type": "array",
                                                "items": {}
                                              }
                                            }
                                          },
                                          "medium": {
                                            "type": "object",
                                            "properties": {
                                              "faces": {
                                                "type": "array",
                                                "items": {}
                                              }
                                            }
                                          },
                                          "orig": {
                                            "type": "object",
                                            "properties": {
                                              "faces": {
                                                "type": "array",
                                                "items": {}
                                              }
                                            }
                                          },
                                          "small": {
                                            "type": "object",
                                            "properties": {
                                              "faces": {
                                                "type": "array",
                                                "items": {}
                                              }
                                            }
                                          },
                                          "id_str": {
                                            "type": "string"
                                          },
                                          "indices": {
                                            "type": "array",
                                            "items": {}
                                          },
                                          "media_url": {
                                            "type": "string"
                                          },
                                          "media_url_https": {
                                            "type": "string"
                                          },
                                          "original_info": {
                                            "type": "object",
                                            "properties": {
                                              "focus_rects": {
                                                "type": "array",
                                                "items": {
                                                  "type": "object",
                                                  "properties": {
                                                    "h": {
                                                      "type": "integer"
                                                    },
                                                    "w": {
                                                      "type": "integer"
                                                    },
                                                    "x": {
                                                      "type": "integer"
                                                    },
                                                    "y": {
                                                      "type": "integer"
                                                    }
                                                  }
                                                }
                                              },
                                              "height": {
                                                "type": "integer"
                                              },
                                              "width": {
                                                "type": "integer"
                                              }
                                            }
                                          },
                                          "sizes": {
                                            "type": "object",
                                            "properties": {
                                              "large": {
                                                "type": "object",
                                                "properties": {
                                                  "h": {
                                                    "type": "integer"
                                                  },
                                                  "resize": {
                                                    "type": "string"
                                                  },
                                                  "w": {
                                                    "type": "integer"
                                                  }
                                                }
                                              },
                                              "medium": {
                                                "type": "object",
                                                "properties": {
                                                  "h": {
                                                    "type": "integer"
                                                  },
                                                  "resize": {
                                                    "type": "string"
                                                  },
                                                  "w": {
                                                    "type": "integer"
                                                  }
                                                }
                                              },
                                              "small": {
                                                "type": "object",
                                                "properties": {
                                                  "h": {
                                                    "type": "integer"
                                                  },
                                                  "resize": {
                                                    "type": "string"
                                                  },
                                                  "w": {
                                                    "type": "integer"
                                                  }
                                                }
                                              },
                                              "thumb": {
                                                "type": "object",
                                                "properties": {
                                                  "h": {
                                                    "type": "integer"
                                                  },
                                                  "resize": {
                                                    "type": "string"
                                                  },
                                                  "w": {
                                                    "type": "integer"
                                                  }
                                                }
                                              }
                                            }
                                          },
                                          "type": {
                                            "type": "string"
                                          },
                                          "url": {
                                            "type": "string"
                                          }
                                        }
                                      }
                                    }
                                  }
                                },
                                "ext": {
                                  "type": "object",
                                  "properties": {
                                    "superFollowMetadata": {
                                      "type": "object",
                                      "properties": {
                                        "r": {
                                          "type": "object",
                                          "properties": {
                                            "ok": {
                                              "type": "object"
                                            }
                                          }
                                        },
                                        "ttl": {
                                          "type": "integer"
                                        }
                                      }
                                    }
                                  }
                                },
                                "favorite_count": {
                                  "type": "integer"
                                },
                                "full_text": {
                                  "type": "string"
                                },
                                "id_str": {
                                  "type": "string"
                                },
                                "is_quote_status": {
                                  "type": "boolean"
                                },
                                "lang": {
                                  "type": "string"
                                },
                                "quote_count": {
                                  "type": "integer"
                                },
                                "quoted_status_id_str": {
                                  "type": "string"
                                },
                                "quoted_status_permalink": {
                                  "type": "object",
                                  "properties": {
                                    "display": {
                                      "type": "string"
                                    },
                                    "expanded": {
                                      "type": "string"
                                    },
                                    "url": {
                                      "type": "string"
                                    }
                                  }
                                },
                                "reply_count": {
                                  "type": "integer"
                                },
                                "retweet_count": {
                                  "type": "integer"
                                },
                                "retweeted_status_id_str": {
                                  "type": "string"
                                },
                                "self_thread": {
                                  "type": "object",
                                  "properties": {
                                    "id_str": {
                                      "type": "string"
                                    }
                                  }
                                },
                                "source": {
                                  "type": "string"
                                },
                                "user_id_str": {
                                  "type": "string"
                                },
                                "extended_entities": {
                                  "type": "object",
                                  "properties": {
                                    "media": {
                                      "type": "array",
                                      "items": {
                                        "type": "object",
                                        "properties": {
                                          "display_url": {
                                            "type": "string"
                                          },
                                          "expanded_url": {
                                            "type": "string"
                                          },
                                          "large": {
                                            "type": "object",
                                            "properties": {
                                              "faces": {
                                                "type": "array",
                                                "items": {}
                                              }
                                            }
                                          },
                                          "medium": {
                                            "type": "object",
                                            "properties": {
                                              "faces": {
                                                "type": "array",
                                                "items": {}
                                              }
                                            }
                                          },
                                          "orig": {
                                            "type": "object",
                                            "properties": {
                                              "faces": {
                                                "type": "array",
                                                "items": {}
                                              }
                                            }
                                          },
                                          "small": {
                                            "type": "object",
                                            "properties": {
                                              "faces": {
                                                "type": "array",
                                                "items": {}
                                              }
                                            }
                                          },
                                          "id_str": {
                                            "type": "string"
                                          },
                                          "indices": {
                                            "type": "array",
                                            "items": {}
                                          },
                                          "media_url": {
                                            "type": "string"
                                          },
                                          "media_url_https": {
                                            "type": "string"
                                          },
                                          "original_info": {
                                            "type": "object",
                                            "properties": {
                                              "focus_rects": {
                                                "type": "array",
                                                "items": {
                                                  "type": "object",
                                                  "properties": {
                                                    "h": {
                                                      "type": "integer"
                                                    },
                                                    "w": {
                                                      "type": "integer"
                                                    },
                                                    "x": {
                                                      "type": "integer"
                                                    },
                                                    "y": {
                                                      "type": "integer"
                                                    }
                                                  }
                                                }
                                              },
                                              "height": {
                                                "type": "integer"
                                              },
                                              "width": {
                                                "type": "integer"
                                              }
                                            }
                                          },
                                          "sizes": {
                                            "type": "object",
                                            "properties": {
                                              "large": {
                                                "type": "object",
                                                "properties": {
                                                  "h": {
                                                    "type": "integer"
                                                  },
                                                  "resize": {
                                                    "type": "string"
                                                  },
                                                  "w": {
                                                    "type": "integer"
                                                  }
                                                }
                                              },
                                              "medium": {
                                                "type": "object",
                                                "properties": {
                                                  "h": {
                                                    "type": "integer"
                                                  },
                                                  "resize": {
                                                    "type": "string"
                                                  },
                                                  "w": {
                                                    "type": "integer"
                                                  }
                                                }
                                              },
                                              "small": {
                                                "type": "object",
                                                "properties": {
                                                  "h": {
                                                    "type": "integer"
                                                  },
                                                  "resize": {
                                                    "type": "string"
                                                  },
                                                  "w": {
                                                    "type": "integer"
                                                  }
                                                }
                                              },
                                              "thumb": {
                                                "type": "object",
                                                "properties": {
                                                  "h": {
                                                    "type": "integer"
                                                  },
                                                  "resize": {
                                                    "type": "string"
                                                  },
                                                  "w": {
                                                    "type": "integer"
                                                  }
                                                }
                                              }
                                            }
                                          },
                                          "type": {
                                            "type": "string"
                                          },
                                          "url": {
                                            "type": "string"
                                          },
                                          "ext": {
                                            "type": "object",
                                            "properties": {
                                              "": {
                                                "type": "string"
                                              }
                                            }
                                          }
                                        }
                                      }
                                    }
                                  }
                                }
                              }
                            }
                          }
                        },
                        "users": {
                          "type": "object"
                        }
                      }
                    },
                    "timeline": {
                      "type": "object"
                    }
                  },
                  "required": [
                    "globalObjects",
                    "timeline"
                  ]
                }
              }
            }
          }
        },
        "operationId": "get-2-timeline-home.json"
      }
    }
  },
  "components": {
    "schemas": {}
  },
  "tags": [
    {
      "name": "v1.1"
    },
    {
      "name": "v2"
    }
  ]
}