{
  "openapi": "3.1.0",
  "info": {
    "title": "Monitoring",
    "version": "1.1",
    "summary": "Twitter JOT API",
    "description": "Reverse engineered Twitter API (Monitoring)",
    "contact": {
      "name": "funnytwttr"
    }
  },
  "servers": [
    {
      "url": "http://localhost:3000/1.1",
      "description": "Locahost"
    },
    {
      "url": "https://api.twitter.com/1.1",
      "description": "Real"
    }
  ],
  "paths": {
    "/jot/client_event.json": {
      "post": {
        "summary": "",
        "operationId": "post-jot-client_event.json",
        "responses": {
          "200": {
            "description": "OK",
            "headers": {
              "x-twitter-response-tags": {
                "schema": {
                  "type": "string"
                },
                "description": "Unsure"
              }
            }
          }
        },
        "requestBody": {
          "content": {
            "multipart/form-data": {
              "schema": {
                "type": "object",
                "properties": {
                  "debug": {
                    "type": "boolean",
                    "default": true
                  },
                  "category": {
                    "type": "string"
                  },
                  "log": {
                    "type": "array",
                    "items": {}
                  }
                },
                "required": [
                  "log"
                ]
              },
              "examples": {}
            }
          },
          "description": "Subbmited performance data."
        },
        "description": "Client montoring, done by a service worker.",
        "parameters": [
          {
            "schema": {
              "type": "string"
            },
            "in": "header",
            "name": "x-twitter-client-language",
            "description": "Language the Twitter client is set to"
          },
          {
            "schema": {
              "type": "string"
            },
            "in": "header",
            "name": "x-twitter-active-user",
            "description": "Unsure"
          },
          {
            "schema": {
              "type": "string"
            },
            "in": "header",
            "name": "x-guest-token",
            "description": "Unsure"
          },
          {
            "schema": {
              "type": "string"
            },
            "in": "header",
            "name": "x-csrf-token:",
            "description": "Unsure"
          }
        ],
        "tags": [
          "monitoring"
        ]
      },
      "parameters": []
    }
  },
  "components": {
    "schemas": {}
  },
  "tags": [
    {
      "name": "monitoring"
    }
  ]
}